-------------------------------------------------------------------------------
Test set: tests.negative.eShopNegativeTest
-------------------------------------------------------------------------------
Tests run: 4, Failures: 1, Errors: 0, Skipped: 0, Time elapsed: 18.877 s <<< FAILURE! - in tests.negative.eShopNegativeTest
GoToURL_Login  Time elapsed: 6.251 s  <<< FAILURE!
com.codeborne.selenide.ex.ElementNotFound: 
Element not found {By.xpath: //div[@class='row']//child::form[@method='post']}
Expected: visible
Screenshot: file:/D:/IT/IntexSoft/Selenide%2004.02.2022/build/reports/tests/1644395739509.0.png
Page source: file:/D:/IT/IntexSoft/Selenide%2004.02.2022/build/reports/tests/1644395739509.0.html
Timeout: 4 s.
Caused by: NoSuchElementException: no such element: Unable to locate element: {"method":"xpath","selector":"//div[@class='row']//child::form[@method='post']"}
	at tests.negative.eShopNegativeTest.GoToURL_Login(eShopNegativeTest.java:22)
Caused by: org.openqa.selenium.NoSuchElementException: 
no such element: Unable to locate element: {"method":"xpath","selector":"//div[@class='row']//child::form[@method='post']"}
  (Session info: chrome=98.0.4758.81)
For documentation on this error, please visit: https://selenium.dev/exceptions/#no_such_element
Build info: version: '4.1.1', revision: 'e8fcc2cecf'
System info: host: 'DESKTOP-7U0TBQD', ip: '10.105.6.3', os.name: 'Windows 10', os.arch: 'amd64', os.version: '10.0', java.version: '17.0.1'
Driver info: org.openqa.selenium.chrome.ChromeDriver
Command: [cd5dbbdfec4a4e85e69c0603e7430f12, findElement {using=xpath, value=//div[@class='row']//child::form[@method='post']}]
Capabilities {acceptInsecureCerts: true, browserName: chrome, browserVersion: 98.0.4758.81, chrome: {chromedriverVersion: 98.0.4758.80 (7f0488e8ba0d8..., userDataDir: C:\Users\Marina\AppData\Loc...}, goog:chromeOptions: {debuggerAddress: localhost:63955}, javascriptEnabled: true, networkConnectionEnabled: false, pageLoadStrategy: normal, platform: WINDOWS, platformName: WINDOWS, proxy: Proxy(), se:cdp: ws://localhost:63955/devtoo..., se:cdpVersion: 98.0.4758.81, setWindowRect: true, strictFileInteractability: false, timeouts: {implicit: 0, pageLoad: 300000, script: 30000}, unhandledPromptBehavior: dismiss and notify, webauthn:extension:credBlob: true, webauthn:extension:largeBlob: true, webauthn:virtualAuthenticators: true}
Session ID: cd5dbbdfec4a4e85e69c0603e7430f12
	at tests.negative.eShopNegativeTest.GoToURL_Login(eShopNegativeTest.java:22)

